Design_1/questasim_rtl_project/wavedump.vcd
$date
	Sun May 22 20:42:35 2022
$end
$version
	Questa Intel Starter FPGA Edition Version 2021.2
$end
$timescale
	1ns
$end

$scope module simon_top_tb $end
$var wire 1 ! clk $end
$var wire 1 " reset_n $end
$var wire 1 # encryption $end
$var wire 1 $ key_length [1] $end
$var wire 1 % key_length [0] $end
$var wire 1 & key_valid $end
$var wire 1 ' key_word_in [31] $end
$var wire 1 ( key_word_in [30] $end
$var wire 1 ) key_word_in [29] $end
$var wire 1 * key_word_in [28] $end
$var wire 1 + key_word_in [27] $end
$var wire 1 , key_word_in [26] $end
$var wire 1 - key_word_in [25] $end
$var wire 1 . key_word_in [24] $end
$var wire 1 / key_word_in [23] $end
$var wire 1 0 key_word_in [22] $end
$var wire 1 1 key_word_in [21] $end
$var wire 1 2 key_word_in [20] $end
$var wire 1 3 key_word_in [19] $end
$var wire 1 4 key_word_in [18] $end
$var wire 1 5 key_word_in [17] $end
$var wire 1 6 key_word_in [16] $end
$var wire 1 7 key_word_in [15] $end
$var wire 1 8 key_word_in [14] $end
$var wire 1 9 key_word_in [13] $end
$var wire 1 : key_word_in [12] $end
$var wire 1 ; key_word_in [11] $end
$var wire 1 < key_word_in [10] $end
$var wire 1 = key_word_in [9] $end
$var wire 1 > key_word_in [8] $end
$var wire 1 ? key_word_in [7] $end
$var wire 1 @ key_word_in [6] $end
$var wire 1 A key_word_in [5] $end
$var wire 1 B key_word_in [4] $end
$var wire 1 C key_word_in [3] $end
$var wire 1 D key_word_in [2] $end
$var wire 1 E key_word_in [1] $end
$var wire 1 F key_word_in [0] $end
$var wire 1 G data_valid $end
$var wire 1 H data_word_in [31] $end
$var wire 1 I data_word_in [30] $end
$var wire 1 J data_word_in [29] $end
$var wire 1 K data_word_in [28] $end
$var wire 1 L data_word_in [27] $end
$var wire 1 M data_word_in [26] $end
$var wire 1 N data_word_in [25] $end
$var wire 1 O data_word_in [24] $end
$var wire 1 P data_word_in [23] $end
$var wire 1 Q data_word_in [22] $end
$var wire 1 R data_word_in [21] $end
$var wire 1 S data_word_in [20] $end
$var wire 1 T data_word_in [19] $end
$var wire 1 U data_word_in [18] $end
$var wire 1 V data_word_in [17] $end
$var wire 1 W data_word_in [16] $end
$var wire 1 X data_word_in [15] $end
$var wire 1 Y data_word_in [14] $end
$var wire 1 Z data_word_in [13] $end
$var wire 1 [ data_word_in [12] $end
$var wire 1 \ data_word_in [11] $end
$var wire 1 ] data_word_in [10] $end
$var wire 1 ^ data_word_in [9] $end
$var wire 1 _ data_word_in [8] $end
$var wire 1 ` data_word_in [7] $end
$var wire 1 a data_word_in [6] $end
$var wire 1 b data_word_in [5] $end
$var wire 1 c data_word_in [4] $end
$var wire 1 d data_word_in [3] $end
$var wire 1 e data_word_in [2] $end
$var wire 1 f data_word_in [1] $end
$var wire 1 g data_word_in [0] $end
$var wire 1 h data_word_out [31] $end
$var wire 1 i data_word_out [30] $end
$var wire 1 j data_word_out [29] $end
$var wire 1 k data_word_out [28] $end
$var wire 1 l data_word_out [27] $end
$var wire 1 m data_word_out [26] $end
$var wire 1 n data_word_out [25] $end
$var wire 1 o data_word_out [24] $end
$var wire 1 p data_word_out [23] $end
$var wire 1 q data_word_out [22] $end
$var wire 1 r data_word_out [21] $end
$var wire 1 s data_word_out [20] $end
$var wire 1 t data_word_out [19] $end
$var wire 1 u data_word_out [18] $end
$var wire 1 v data_word_out [17] $end
$var wire 1 w data_word_out [16] $end
$var wire 1 x data_word_out [15] $end
$var wire 1 y data_word_out [14] $end
$var wire 1 z data_word_out [13] $end
$var wire 1 { data_word_out [12] $end
$var wire 1 | data_word_out [11] $end
$var wire 1 } data_word_out [10] $end
$var wire 1 ~ data_word_out [9] $end
$var wire 1 !! data_word_out [8] $end
$var wire 1 "! data_word_out [7] $end
$var wire 1 #! data_word_out [6] $end
$var wire 1 $! data_word_out [5] $end
$var wire 1 %! data_word_out [4] $end
$var wire 1 &! data_word_out [3] $end
$var wire 1 '! data_word_out [2] $end
$var wire 1 (! data_word_out [1] $end
$var wire 1 )! data_word_out [0] $end
$var wire 1 *! data_ready $end
$var wire 1 +! data_bkp [127] $end
$var wire 1 ,! data_bkp [126] $end
$var wire 1 -! data_bkp [125] $end
$var wire 1 .! data_bkp [124] $end
$var wire 1 /! data_bkp [123] $end
$var wire 1 0! data_bkp [122] $end
$var wire 1 1! data_bkp [121] $end
$var wire 1 2! data_bkp [120] $end
$var wire 1 3! data_bkp [119] $end
$var wire 1 4! data_bkp [118] $end
$var wire 1 5! data_bkp [117] $end
$var wire 1 6! data_bkp [116] $end
$var wire 1 7! data_bkp [115] $end
$var wire 1 8! data_bkp [114] $end
$var wire 1 9! data_bkp [113] $end
$var wire 1 :! data_bkp [112] $end
$var wire 1 ;! data_bkp [111] $end
$var wire 1 <! data_bkp [110] $end
$var wire 1 =! data_bkp [109] $end
$var wire 1 >! data_bkp [108] $end
$var wire 1 ?! data_bkp [107] $end
$var wire 1 @! data_bkp [106] $end
$var wire 1 A! data_bkp [105] $end
$var wire 1 B! data_bkp [104] $end
$var wire 1 C! data_bkp [103] $end
$var wire 1 D! data_bkp [102] $end
$var wire 1 E! data_bkp [101] $end
$var wire 1 F! data_bkp [100] $end
$var wire 1 G! data_bkp [99] $end
$var wire 1 H! data_bkp [98] $end
$var wire 1 I! data_bkp [97] $end
$var wire 1 J! data_bkp [96] $end
$var wire 1 K! data_bkp [95] $end
$var wire 1 L! data_bkp [94] $end
$var wire 1 M! data_bkp [93] $end
$var wire 1 N! data_bkp [92] $end
$var wire 1 O! data_bkp [91] $end
$var wire 1 P! data_bkp [90] $end
$var wire 1 Q! data_bkp [89] $end
$var wire 1 R! data_bkp [88] $end
$var wire 1 S! data_bkp [87] $end
$var wire 1 T! data_bkp [86] $end
$var wire 1 U! data_bkp [85] $end
$var wire 1 V! data_bkp [84] $end
$var wire 1 W! data_bkp [83] $end
$var wire 1 X! data_bkp [82] $end
$var wire 1 Y! data_bkp [81] $end
$var wire 1 Z! data_bkp [80] $end
$var wire 1 [! data_bkp [79] $end
$var wire 1 \! data_bkp [78] $end
$var wire 1 ]! data_bkp [77] $end
$var wire 1 ^! data_bkp [76] $end
$var wire 1 _! data_bkp [75] $end
$var wire 1 `! data_bkp [74] $end
$var wire 1 a! data_bkp [73] $end
$var wire 1 b! data_bkp [72] $end
$var wire 1 c! data_bkp [71] $end
$var wire 1 d! data_bkp [70] $end
$var wire 1 e! data_bkp [69] $end
$var wire 1 f! data_bkp [68] $end
$var wire 1 g! data_bkp [67] $end
$var wire 1 h! data_bkp [66] $end
$var wire 1 i! data_bkp [65] $end
$var wire 1 j! data_bkp [64] $end
$var wire 1 k! data_bkp [63] $end
$var wire 1 l! data_bkp [62] $end
$var wire 1 m! data_bkp [61] $end
$var wire 1 n! data_bkp [60] $end
$var wire 1 o! data_bkp [59] $end
$var wire 1 p! data_bkp [58] $end
$var wire 1 q! data_bkp [57] $end
$var wire 1 r! data_bkp [56] $end
$var wire 1 s! data_bkp [55] $end
$var wire 1 t! data_bkp [54] $end
$var wire 1 u! data_bkp [53] $end
$var wire 1 v! data_bkp [52] $end
$var wire 1 w! data_bkp [51] $end
$var wire 1 x! data_bkp [50] $end
$var wire 1 y! data_bkp [49] $end
$var wire 1 z! data_bkp [48] $end
$var wire 1 {! data_bkp [47] $end
$var wire 1 |! data_bkp [46] $end
$var wire 1 }! data_bkp [45] $end
$var wire 1 ~! data_bkp [44] $end
$var wire 1 !" data_bkp [43] $end
$var wire 1 "" data_bkp [42] $end
$var wire 1 #" data_bkp [41] $end
$var wire 1 $" data_bkp [40] $end
$var wire 1 %" data_bkp [39] $end
$var wire 1 &" data_bkp [38] $end
$var wire 1 '" data_bkp [37] $end
$var wire 1 (" data_bkp [36] $end
$var wire 1 )" data_bkp [35] $end
$var wire 1 *" data_bkp [34] $end
$var wire 1 +" data_bkp [33] $end
$var wire 1 ," data_bkp [32] $end
$var wire 1 -" data_bkp [31] $end
$var wire 1 ." data_bkp [30] $end
$var wire 1 /" data_bkp [29] $end
$var wire 1 0" data_bkp [28] $end
$var wire 1 1" data_bkp [27] $end
$var wire 1 2" data_bkp [26] $end
$var wire 1 3" data_bkp [25] $end
$var wire 1 4" data_bkp [24] $end
$var wire 1 5" data_bkp [23] $end
$var wire 1 6" data_bkp [22] $end
$var wire 1 7" data_bkp [21] $end
$var wire 1 8" data_bkp [20] $end
$var wire 1 9" data_bkp [19] $end
$var wire 1 :" data_bkp [18] $end
$var wire 1 ;" data_bkp [17] $end
$var wire 1 <" data_bkp [16] $end
$var wire 1 =" data_bkp [15] $end
$var wire 1 >" data_bkp [14] $end
$var wire 1 ?" data_bkp [13] $end
$var wire 1 @" data_bkp [12] $end
$var wire 1 A" data_bkp [11] $end
$var wire 1 B" data_bkp [10] $end
$var wire 1 C" data_bkp [9] $end
$var wire 1 D" data_bkp [8] $end
$var wire 1 E" data_bkp [7] $end
$var wire 1 F" data_bkp [6] $end
$var wire 1 G" data_bkp [5] $end
$var wire 1 H" data_bkp [4] $end
$var wire 1 I" data_bkp [3] $end
$var wire 1 J" data_bkp [2] $end
$var wire 1 K" data_bkp [1] $end
$var wire 1 L" data_bkp [0] $end
$upscope $end
$enddefinitions $end
#0
$dumpvars
1!
0"
0#
0&
0G
x*!
0$
0%
0'
0(
0)
0*
0+
0,
0-
0.
0/
00
01
02
03
04
05
06
07
08
09
0:
0;
0<
0=
0>
0?
0@
0A
0B
0C
0D
0E
0F
xH
xI
xJ
xK
xL
xM
xN
xO
xP
xQ
xR
xS
xT
xU
xV
xW
xX
xY
xZ
x[
x\
x]
x^
x_
x`
xa
xb
xc
xd
xe
xf
xg
xh
xi
xj
xk
xl
xm
xn
xo
xp
xq
xr
xs
xt
xu
xv
xw
xx
xy
xz
x{
x|
x}
x~
x!!
x"!
x#!
x$!
x%!
x&!
x'!
x(!
x)!
0+!
0,!
0-!
0.!
0/!
00!
01!
02!
03!
04!
05!
06!
07!
08!
09!
0:!
0;!
0<!
0=!
0>!
0?!
0@!
0A!
0B!
0C!
0D!
0E!
0F!
0G!
0H!
0I!
0J!
0K!
0L!
0M!
0N!
0O!
0P!
0Q!
0R!
0S!
0T!
0U!
0V!
0W!
0X!
0Y!
0Z!
0[!
0\!
0]!
0^!
0_!
0`!
0a!
0b!
0c!
0d!
0e!
0f!
0g!
0h!
0i!
0j!
0k!
0l!
0m!
0n!
0o!
0p!
0q!
0r!
0s!
0t!
0u!
0v!
0w!
0x!
0y!
0z!
0{!
0|!
0}!
0~!
0!"
0""
0#"
0$"
0%"
0&"
0'"
0("
0)"
0*"
0+"
0,"
0-"
0."
0/"
00"
01"
02"
03"
04"
05"
06"
07"
08"
09"
0:"
0;"
0<"
0="
0>"
0?"
0@"
0A"
0B"
0C"
0D"
0E"
0F"
0G"
0H"
0I"
0J"
0K"
0L"
$end
#10
0!
#20
1!
0*!
0)!
0(!
0'!
0&!
0%!
0$!
0#!
0"!
0!!
0~
0}
0|
0{
0z
0y
0x
0w
0v
0u
0t
0s
0r
0q
0p
0o
0n
0m
0l
0k
0j
0i
0h
#30
0!
#40
1!
#50
0!
#60
1!
#70
0!
#80
1!
1"
1#
#90
0!
#100
1!
1F
1E
1D
1C
1A
1@
1?
1=
1<
1;
1:
19
17
16
14
13
11
1/
1-
1,
1+
1*
1(
1'
1&
#110
0!
#120
1!
0C
0?
1>
0=
0;
0:
09
18
07
15
04
03
0/
1.
0-
0,
0+
0*
0(
0'
#130
0!
#140
1!
1C
1?
1;
17
13
1/
1+
1'
#150
0!
#160
1!
0>
1=
1:
19
08
05
14
0.
1-
1,
1*
1(
#170
0!
#180
1!
1g
0f
1e
0d
0c
1b
0a
1`
1_
0^
1]
0\
0[
1Z
0Y
1X
1W
0V
1U
0T
0S
1R
0Q
1P
1O
0N
1M
0L
0K
1J
0I
1H
1G
0F
0E
0D
0C
0A
0@
0?
0=
0<
0;
0:
09
07
06
04
03
01
0/
0-
0,
0+
0*
0(
0'
0&
#190
0!
#200
1!
1f
1a
0`
0Z
1Y
0X
1V
0U
0P
0M
0J
0H
#210
0!
#220
1!
0g
0f
0e
1d
1c
0b
0a
1`
0_
1^
0]
1\
1[
1Z
0Y
1X
0W
0V
1U
1T
1S
0R
1Q
1P
0O
1N
1M
1L
1K
1J
1I
1H
#230
0!
#240
1!
1f
1a
0`
0Z
1Y
0X
1V
0U
0P
0M
0J
0H
#250
0!
#260
1!
0f
0d
0c
0a
0^
0\
0[
0Y
0V
0T
0S
0Q
0N
0L
0K
0I
0G
